<?xml version="1.0" encoding="UTF-8" standalone="no"?>
<!-- Created with Inkscape (http://www.inkscape.org/) -->

<svg
   version="1.1"
   id="svg72615"
   xml:space="preserve"
   width="41.042004"
   height="35.543419"
   xmlns:inkscape="http://www.inkscape.org/namespaces/inkscape"
   xmlns:sodipodi="http://sodipodi.sourceforge.net/DTD/sodipodi-0.dtd"
   xmlns="http://www.w3.org/2000/svg"
   xmlns:svg="http://www.w3.org/2000/svg"><defs
     id="defs72619"><rect
       x="432.65604"
       y="398.16885"
       width="64.350754"
       height="39.62495"
       id="rect70082" /></defs><sodipodi:namedview
     id="namedview72617"
     pagecolor="#ffffff"
     bordercolor="#000000"
     borderopacity="0.25"
     inkscape:showpageshadow="2"
     inkscape:pageopacity="0.0"
     inkscape:pagecheckerboard="0"
     inkscape:deskcolor="#d1d1d1" /><inkscape:clipboard
     style="font-variation-settings:normal;opacity:1;vector-effect:none;fill:#000000;fill-opacity:1;stroke-width:3.77952762;stroke-linecap:butt;stroke-linejoin:miter;stroke-miterlimit:4;stroke-dasharray:none;stroke-dashoffset:0;stroke-opacity:1;-inkscape-stroke:none;stop-color:#000000;stop-opacity:1"
     min="310.60687,315.07353"
     max="351.64887,350.61695"
     geom-min="310.60687,315.07353"
     geom-max="351.64887,350.61695" /><g
     id="g72622"
     transform="matrix(3.7795276,0,0,3.7795276,-310.60687,-315.07353)"><g
       id="g72561"><g
         id="g65120-1"
         transform="translate(-17.748977,0.48335347)"><path
           sodipodi:type="star"
           style="fill:#ff0000;fill-opacity:1;fill-rule:evenodd;stroke-width:7.9375;stroke-dasharray:none;paint-order:markers fill stroke"
           id="path63293-2-7"
           inkscape:flatsided="true"
           sodipodi:sides="3"
           sodipodi:cx="106.04869"
           sodipodi:cy="68.653076"
           sodipodi:r1="6.269464"
           sodipodi:r2="3.134732"
           sodipodi:arg1="0.52359878"
           sodipodi:arg2="1.5707963"
           inkscape:rounded="0"
           inkscape:randomized="0"
           d="m 111.47821,71.787808 -10.85903,0 5.42951,-9.404196 z"
           inkscape:transform-center-y="-1.5673658"
           transform="translate(-0.68879906,20.496237)" /><text
           xml:space="preserve"
           style="font-size:3.8469px;line-height:0px;font-family:sans-serif;-inkscape-font-specification:sans-serif;text-align:center;text-anchor:middle;white-space:pre;inline-size:4.66383;display:inline;fill:#ff0000;fill-opacity:1;stroke:#000000;stroke-width:0.577036;stroke-linecap:square;stroke-dasharray:none;paint-order:markers fill stroke"
           x="113.06578"
           y="62.899048"
           id="text63394-1-6"
           transform="matrix(1.1907258,0,0,1.219431,-29.219049,14.105279)"><tspan
             x="113.06578"
             y="62.899048"
             id="tspan72671">H</tspan></text><text
           xml:space="preserve"
           transform="matrix(0.26458333,0,0,0.26458333,17.895719,-0.48335347)"
           id="text70080"
           style="font-size:13.3333px;line-height:0px;font-family:sans-serif;-inkscape-font-specification:sans-serif;text-align:center;white-space:pre;shape-inside:url(#rect70082);display:inline;fill:#ff0000;fill-opacity:0.779251;stroke:#000000;stroke-width:1;stroke-linecap:square;stroke-dasharray:none;stroke-opacity:0.897372;paint-order:markers fill stroke" /></g></g></g></svg>
